%YAML 1.1
%TAG !u! tag:unity3d.com,2011:
--- !u!1045 &1
EditorBuildSettings:
  m_ObjectHideFlags: 0
  serializedVersion: 2
  m_Scenes:
  - enabled: 1
    path: Assets/Scenes/Menu/MainMenu.unity
    guid: bc4778e02b95e0c4ab4063f7af105ae0
  - enabled: 1
    path: Assets/Scenes/Levels/Level2.unity
    guid: 0705c0e85ac6a2d4b95c7a725c40e2fe
  - enabled: 0
    path: Assets/Scenes/Levels/Level1.unity
    guid: 4a1d805d8c418bb46bdad24266a4264a
  m_configObjects: {}
